<?xml version="1.0" encoding="UTF-8" standalone="no"?>
<svg
   xmlns:dc="http://purl.org/dc/elements/1.1/"
   xmlns:cc="http://creativecommons.org/ns#"
   xmlns:rdf="http://www.w3.org/1999/02/22-rdf-syntax-ns#"
   xmlns:svg="http://www.w3.org/2000/svg"
   xmlns="http://www.w3.org/2000/svg"
   xmlns:sodipodi="http://sodipodi.sourceforge.net/DTD/sodipodi-0.dtd"
   xmlns:inkscape="http://www.inkscape.org/namespaces/inkscape"
   viewBox="0 0 1200 1200"
   version="1.1"
   id="svg3763"
   sodipodi:docname="cryoStack-gui.svg"
   inkscape:version="0.92.4 (unknown)"
   inkscape:export-filename="/home/ortegaribeirod/projects/repos/cryo-api/assets/cryoStack-api.png"
   inkscape:export-xdpi="96"
   inkscape:export-ydpi="96"
   width="1200"
   height="1200">
  <metadata
     id="metadata3769">
    <rdf:RDF>
      <cc:Work
         rdf:about="">
        <dc:format>image/svg+xml</dc:format>
        <dc:type
           rdf:resource="http://purl.org/dc/dcmitype/StillImage" />
        <dc:title></dc:title>
      </cc:Work>
    </rdf:RDF>
  </metadata>
  <defs
     id="defs3767" />
  <sodipodi:namedview
     pagecolor="#ffffff"
     bordercolor="#666666"
     borderopacity="1"
     objecttolerance="10"
     gridtolerance="10"
     guidetolerance="10"
     inkscape:pageopacity="0"
     inkscape:pageshadow="2"
     inkscape:window-width="1853"
     inkscape:window-height="1025"
     id="namedview3765"
     showgrid="false"
     inkscape:zoom="0.29140533"
     inkscape:cx="-224.0751"
     inkscape:cy="481.22714"
     inkscape:window-x="67"
     inkscape:window-y="27"
     inkscape:window-maximized="1"
     inkscape:current-layer="svg3763" />
  <path
     d="m 647.59651,489.90902 -59.2438,-34.29651 52.9024,-9.18994 c 5.20232,-1.2236 9.44088,-4.61231 11.9762,-9.01462 2.20692,-3.83276 3.11997,-8.43442 2.24608,-13.03783 -1.87766,-9.89118 -11.28919,-16.0528 -21.02018,-13.76399 l -76.01739,27.68905 -73.09142,-37.31059 73.09231,-37.30967 76.01738,27.68903 c 9.73191,2.28882 19.14341,-3.87281 21.02021,-13.76398 1.87854,-9.89116 -4.4904,-19.76364 -14.22141,-22.05245 l -52.9024,-9.18995 59.2429,-34.29649 c 8.48958,-4.91489 11.226,-16.09995 6.11089,-24.98288 -5.11512,-8.88292 -16.14265,-12.09899 -24.63224,-7.185 l -59.24379,34.29651 18.51422,-50.53441 c 2.88861,-9.59481 -2.45431,-20.05996 -11.93614,-23.37572 -9.48092,-3.31486 -19.50824,1.77712 -22.39687,11.37195 l -14.09412,79.85463 -64.44877,37.30967 v -74.61848 l 61.92328,-52.16647 c 6.84236,-7.30601 6.22657,-18.5596 -1.37758,-25.13504 -7.60415,-6.57719 -19.31512,-5.98276 -26.15753,1.3224 l -34.38907,41.34444 v -68.59301 c 0,-9.82975 -8.29202,-17.79787 -18.52134,-17.79787 -10.22932,0 -18.52137,7.96812 -18.52137,17.79787 v 68.59301 l -34.38905,-41.34444 c -6.84238,-7.30604 -18.5534,-7.89871 -26.15755,-1.3224 -7.60323,6.57544 -8.21906,17.82903 -1.37665,25.13504 l 61.92325,52.16647 v 74.62025 l -64.44878,-37.30968 -14.09413,-79.8555 c -2.88949,-9.59483 -12.91681,-14.68679 -22.39773,-11.37194 -9.48271,3.31486 -14.82476,13.78089 -11.93614,23.37573 l 18.51423,50.53439 -59.2429,-34.29651 c -8.4896,-4.91488 -19.51805,-1.6979 -24.63227,7.18499 -5.11422,8.88294 -2.37868,20.06799 6.11092,24.98289 l 59.24379,34.2965 -52.90332,9.19082 c -9.73098,2.28881 -16.09817,12.16129 -14.2214,22.05246 1.8777,9.89029 11.28921,16.05192 21.02109,13.76309 l 76.01651,-27.68904 73.09143,37.30879 -73.09232,37.3097 -76.01742,-27.68904 c -9.73186,-2.28881 -19.1425,3.87281 -21.02106,13.76309 -1.87679,9.88941 4.4904,19.76365 14.2214,22.05247 l 52.9033,9.19081 -59.24382,34.29651 c -8.48778,4.91487 -11.22421,16.09994 -6.1091,24.98288 5.1151,8.8829 16.14267,12.09987 24.63227,7.185 l 59.24378,-34.29652 -18.51423,50.53351 c -1.54397,5.12937 -0.73684,10.5052 1.79759,14.90663 2.20695,3.83277 5.72469,6.92693 10.13767,8.46909 9.4818,3.31487 19.50913,-1.77709 22.39773,-11.37194 l 14.09413,-79.8555 64.44878,-37.30967 v 74.62024 l -61.92325,52.16648 c -6.84329,7.306 -6.22658,18.55872 1.37665,25.13505 7.60326,6.57453 19.31517,5.98275 26.15755,-1.3233 l 34.38905,-41.34445 v 68.59391 c 0,9.82976 8.29205,17.79787 18.52137,17.79787 10.22932,0 18.52134,-7.96811 18.52134,-17.79787 v -68.59391 l 34.38907,41.34445 c 3.65835,3.90577 8.70496,5.892 13.77376,5.892 4.41387,0 8.84467,-1.50748 12.38377,-4.5687 7.60415,-6.57633 8.21994,-17.82905 1.37758,-25.13505 l -61.92418,-52.16648 v -74.62024 l 64.44878,37.30967 14.09413,79.8555 c 2.88862,9.59485 12.91595,14.68681 22.39686,11.37194 9.48005,-3.31572 14.82475,-13.78176 11.93526,-23.37572 l -18.51422,-50.53439 59.24377,34.29652 c 8.48958,4.91487 19.51803,1.6979 24.63224,-7.185 5.11602,-8.88206 2.38048,-20.06713 -6.10998,-24.98111 z"
     id="path3761"
     inkscape:connector-curvature="0"
     style="fill:#999999;stroke-width:0.88989371" />
  <rect
     style="fill:#999999;stroke-width:1.81569386"
     id="rect3771"
     width="736.87909"
     height="56.174641"
     x="232.63831"
     y="788.25464" />
  <rect
     style="fill:#999999;stroke-width:1.81569386"
     id="rect3771-3"
     width="736.87909"
     height="56.174641"
     x="232.63831"
     y="882.70508" />
  <rect
     style="fill:#999999;stroke-width:1.81569386"
     id="rect3771-6"
     width="736.87909"
     height="56.174641"
     x="232.63831"
     y="977.15558" />
  <text
     xml:space="preserve"
     style="font-style:normal;font-weight:normal;font-size:229.86488342px;line-height:1.25;font-family:sans-serif;letter-spacing:0px;word-spacing:0px;fill:#000000;fill-opacity:1;stroke:none;stroke-width:5.74662209"
     x="575.34314"
     y="757.47083"
     id="text3906"><tspan
       sodipodi:role="line"
       id="tspan3904"
       x="575.34314"
       y="757.47083"
       style="font-style:normal;font-variant:normal;font-weight:normal;font-stretch:normal;font-family:'Samyak Malayalam';-inkscape-font-specification:'Samyak Malayalam';stroke-width:5.74662209">GUI</tspan></text>
</svg>
<!--
Font Awesome Free 5.2.0 by @fontawesome - https://fontawesome.com
License - https://fontawesome.com/license (Icons: CC BY 4.0, Fonts: SIL OFL 1.1, Code: MIT License)
-->

